…
``` r
single_arima()
```

<img src="man/figures/README-arima-1.png" width="100%" />

### Site collection info pushed to elvislims from Bio-Track

Just created this function and testing if it’s working

``` r
site_collections()
#> # A tibble: 204,017 × 16
#>    site_id_randomized               number_of_containers container_type capacity
#>    <chr>                                           <int> <chr>             <int>
#>  1 2f65c9a05b770edb650f839c06514908                  119 [FH prefixed]…       48
#>  2 2f65c9a05b770edb650f839c06514908                  119 [FH prefixed]…       48
#>  3 2f65c9a05b770edb650f839c06514908                  119 [FH prefixed]…       48
#>  4 2f65c9a05b770edb650f839c06514908                  119 [FH prefixed]…       48
#>  5 2f65c9a05b770edb650f839c06514908                  119 [FH prefixed]…       48
#>  6 2f65c9a05b770edb650f839c06514908                  119 [FH prefixed]…       48
#>  7 2f65c9a05b770edb650f839c06514908                  119 [FH prefixed]…       48
#>  8 2f65c9a05b770edb650f839c06514908                  119 [FH prefixed]…       48
#>  9 2f65c9a05b770edb650f839c06514908                  119 [FH prefixed]…       48
#> 10 2f65c9a05b770edb650f839c06514908                  119 [FH prefixed]…       48
#> # ℹ 204,007 more rows
#> # ℹ 12 more variables: number_of_specimen <int>, specimen_type <chr>,
#> #   sample_type <chr>, storage_date <chr>, nominal_volume <chr>,
#> #   partial_aliquot <lgl>, partial_volume <dbl>, tube_size <chr>,
#> #   specialized_whole_blood <int>, specialized_breast_milk <int>,
#> #   specialized_urine <int>, shipped <int>
```

## Future kit builds and biospecimen collection protocol

We can’t really use this information yet, because we do not have a clear
estimate of the number of participants.

``` r
biospecimen_collections <- readCollections()
biospecimen_collections
#> # A tibble: 27 × 29
#>    collection_id   kit_type biospecimen_type participant tube_size tubes_per_kit
#>    <chr>           <chr>    <chr>            <chr>       <chr>             <dbl>
#>  1 breastmilk_1.9… breastm… breastmilk       maternal    1.9ml                 8
#>  2 breastmilk_1ml… breastm… breastmilk       maternal    1ml                  10
#>  3 cord_blood_1.9… cord_bl… cord_blood       child       1.9ml                 6
#>  4 cord_blood_1ml… cord_bl… cord_blood       child       1ml                  10
#>  5 placenta_1.9ml… placenta placenta         maternal    1.9ml                16
#>  6 urine_cup_mate… urine_c… urine            maternal    1.9ml                 3
#>  7 urine_cup_mate… urine_c… urine            maternal    1.9ml                 3
#>  8 urine_diaper_1… urine_d… urine            child       1.9ml                 3
#>  9 urine_cup_curr… urine_c… urine            partner     1.9ml                 3
#> 10 urine_cup_mate… urine_c… urine            maternal    1.9ml                 3
#> # ℹ 17 more rows
#> # ℹ 23 more variables: proportion_from_kit_collected <dbl>, visit <chr>,
#> #   visit_logical_order <dbl>, specimen_type <chr>, y_2025 <dbl>, y_2026 <dbl>,
#> #   y_2027 <dbl>, y_2028 <dbl>, y_2029 <dbl>, y_2030 <dbl>,
#> #   y_2025_proportion <dbl>, y_2026_proportion <dbl>, y_2027_proportion <dbl>,
#> #   y_2028_proportion <dbl>, y_2029_proportion <dbl>, y_2030_proportion <dbl>,
#> #   specialized_obesity <chr>, specialized_obesity_proportion <chr>, …
```
…
